2018-12-28 14:23:37.4612 DEBUG QC2Aproach_Stats_11-2018.xml
2018-12-28 14:23:55.2693 DEBUG applabs  leaves and WFH Guidelines.pdf
2018-12-28 14:23:58.6352 ERROR Data at the root level is invalid. Line 1, position 1.
2018-12-28 14:24:29.5750 DEBUG applabs  leaves and WFH Guidelines.pdf
2018-12-28 14:24:29.6775 ERROR Data at the root level is invalid. Line 1, position 1.
2018-12-28 14:24:57.2420 DEBUG LHJIRA2Aproach_Stats_11-2018.xml
